Getting Started with healthcareai • healthcareai
…
Everything looks as expected, and the best model is is a random forest that achives performance of AUROC = 0.84. Not bad for one line of code.

Now that we have our models, we can make predictions using the predict function. If you provide a new data frame to predict it will make predictions on the new data; otherwise, it will make predictions on the training data.

predictions <- predict(quick_models)
predictions
#> "predicted_diabetes" predicted by Random Forest last trained: 2018-04-01 09:17:39
#> Performance in training: ROC = 0.84
#> # A tibble: 768 x 14
#>    diabetes predicted_diabetes pregnancies plasma_glucose diastolic_bp
#>  * <fct>                 <dbl>       <int>          <dbl>        <dbl>
#>  1 Y                   0.796             6           148.         72.0
#>  2 N                   0.0740            1            85.         66.0
#>  3 Y                   0.608             8           183.         64.0
#>  4 N                   0.00639           1            89.         66.0
#>  5 Y                   0.717             0           137.         40.0
#>  6 N                   0.164             5           116.         74.0
#>  7 Y                   0.311             3            78.         50.0
#>  8 N                   0.379            10           115.         72.4
#>  9 Y                   0.843             2           197.         70.0
#> 10 Y                   0.614             8           125.         96.0
#> # ... with 758 more rows, and 9 more variables: skinfold <dbl>,
#> #   insulin <dbl>, pedigree <dbl>, age <int>, weight_class_normal <dbl>,
#> #   weight_class_obese <dbl>, weight_class_overweight <dbl>,
#> #   weight_class_other <dbl>, weight_class_hcai_missing <dbl>
…
Prediction

We can easily get predictions on our original dataset. predict will automatically use the best-performing model from training (evaluated out-of-fold in cross validation). The predicted probabilities appear in the predicted_diabetes column.

predict(models)
#> "predicted_diabetes" predicted by Random Forest last trained: 2018-04-01 09:18:17
#> Performance in training: PR = 0.9
#> # A tibble: 692 x 15
#>    diabetes predicted_diabetes pregnancies plasma_glucose diastolic_bp
#>  * <fct>                 <dbl>       <dbl>          <dbl>        <dbl>
#>  1 N                   0.0883       -0.843         -1.19        -0.521
#>  2 Y                   0.537         1.22           2.01        -0.686
#>  3 N                   0.00660      -0.843         -1.05        -0.521
#>  4 Y                   0.696        -1.14           0.509       -2.66 
#>  5 N                   0.244         0.338         -0.175        0.138
#>  6 Y                   0.270        -0.253         -1.41        -1.84 
#>  7 N                   0.384         1.81          -0.208        0.   
#>  8 Y                   0.841        -0.548          2.46        -0.191
#>  9 Y                   0.606         1.22           0.118        1.95 
#> 10 Y                   0.838         1.81           1.52         0.138
#> # ... with 682 more rows, and 10 more variables: skinfold <dbl>,
#> #   insulin <dbl>, pedigree <dbl>, age <dbl>, weight_class_normal <dbl>,
#> #   weight_class_obese <dbl>, weight_class_overweight <dbl>,
#> #   weight_class_underweight <dbl>, weight_class_hcai_missing <dbl>,
#> #   weight_class_other <dbl>
…
