Getting Started with healthcareai
…
Everything looks as expected, and the best model is is a random forest that achives performance of AUROC = 0.84. Not bad for one line of code.

Now that we have our models, we can make predictions using the predict function. If you provide a new data frame to predict it will make predictions on the new data; otherwise, it will make predictions on the training data.

predictions <- predict(quick_models)
predictions
# > "predicted_diabetes" predicted by Random Forest last trained: 2018-04-01 13:26:12
# > Performance in training: ROC = 0.84
# > # A tibble: 768 x 14
# >   diabetes predicted_diabetes pregnancies plasma_glucose diastolic_bp
# > * <fct>                 <dbl>       <int>          <dbl>        <dbl>
# > 1 Y                   0.796             6           148.          72.
# > 2 N                   0.0740            1            85.          66.
# > 3 Y                   0.608             8           183.          64.
# > 4 N                   0.00639           1            89.          66.
# > 5 Y                   0.717             0           137.          40.
# > # ... with 763 more rows, and 9 more variables: skinfold <dbl>,
# > #   insulin <dbl>, pedigree <dbl>, age <int>, weight_class_normal <dbl>,
# > #   weight_class_obese <dbl>, weight_class_overweight <dbl>,
# > #   weight_class_other <dbl>, weight_class_hcai_missing <dbl>
…
Prediction

We can easily get predictions on our original dataset. predict will automatically use the best-performing model from training (evaluated out-of-fold in cross validation). The predicted probabilities appear in the predicted_diabetes column.

predict(models)
# > "predicted_diabetes" predicted by Random Forest last trained: 2018-04-01 13:26:33
# > Performance in training: PR = 0.9
# > # A tibble: 692 x 15
# >   diabetes predicted_diabetes pregnancies plasma_glucose diastolic_bp
# > * <fct>                 <dbl>       <dbl>          <dbl>        <dbl>
# > 1 N                   0.0677       -0.843         -1.19        -0.521
# > 2 Y                   0.642         1.22           2.01        -0.686
# > 3 N                   0.00366      -0.843         -1.05        -0.521
# > 4 Y                   0.723        -1.14           0.509       -2.66 
# > 5 N                   0.228         0.338         -0.175        0.138
# > # ... with 687 more rows, and 10 more variables: skinfold <dbl>,
# > #   insulin <dbl>, pedigree <dbl>, age <dbl>, weight_class_normal <dbl>,
# > #   weight_class_obese <dbl>, weight_class_overweight <dbl>,
# > #   weight_class_underweight <dbl>, weight_class_hcai_missing <dbl>,
# > #   weight_class_other <dbl>
…
# > Running cross validation for k-Nearest Neighbors
summary(regression_models)
# > Models trained: 2018-04-01 13:26:49
# > 
# > Models tuned via 5-fold cross validation over 10 combinations of hyperparameter values.
# > Best performance: RMSE = 9.07
# > By Random Forest with hyperparameters:
# >   mtry = 10
# >   splitrule = extratrees
# >   min.node.size = 10
# > 
# > Out-of-fold performance of all trained models:
# > 
# > $`Random Forest`
# > # A tibble: 10 x 9
# >   min.node.size  mtry splitrule   RMSE Rsquared   MAE RMSESD RsquaredSD
# > *         <int> <int> <fct>      <dbl>    <dbl> <dbl>  <dbl>      <dbl>
# > 1            10    10 extratrees  9.07    0.404  6.43  0.640     0.0358
# > 2             8    11 extratrees  9.09    0.402  6.43  0.626     0.0396
# > 3            12     5 extratrees  9.13    0.405  6.56  0.666     0.0272
# > 4            10    13 variance    9.33    0.376  6.60  0.633     0.0358
# > 5             7    10 variance    9.34    0.374  6.61  0.583     0.0303
# > # ... with 5 more rows, and 1 more variable: MAESD <dbl>
# > 
# > $`k-Nearest Neighbors`
# > # A tibble: 10 x 9
# >    kmax distance kernel       RMSE Rsquared   MAE RMSESD RsquaredSD MAESD
# > * <dbl>    <dbl> <fct>       <dbl>    <dbl> <dbl>  <dbl>      <dbl> <dbl>
# > 1   16.    2.60  inv          9.44    0.363  6.65  0.811     0.0649 0.551
# > 2   14.    1.73  gaussian     9.44    0.361  6.66  0.717     0.0593 0.452
# > 3   13.    1.58  triangular   9.49    0.355  6.66  0.764     0.0697 0.461
# > 4   10.    0.933 rectangular  9.55    0.346  6.79  0.637     0.0438 0.412
# > 5    6.    1.68  inv          9.64    0.340  6.74  0.723     0.0677 0.465
# > # ... with 5 more rows
…
