Healthcare.ai Fundamentals • healthcareai
…
It has some details about the dataset and the model training, and it tells us that the best model is is a random forest that achives performance of AUROC of 0.85. Not too bad for one line of code.

We can make predictions using the predict function. If you provide a new data frame to predict it will make predictions on the new data; otherwise, it will make predictions on the training data.

predict(quick_models)

## "predicted_diabetes" predicted by Random Forest last trained: 2018-03-30 08:16:17
## Performance in training: ROC = 0.85

## # A tibble: 768 x 14
##    diabetes predicted_diabetes pregnancies plasma_glucose diastolic_bp
##  * <fct>                 <dbl>       <int>          <dbl>        <dbl>
##  1 Y                    0.756            6           148.         72.0
##  2 N                    0.0949           1            85.         66.0
##  3 Y                    0.559            8           183.         64.0
##  4 N                    0.0132           1            89.         66.0
##  5 Y                    0.694            0           137.         40.0
##  6 N                    0.189            5           116.         74.0
##  7 Y                    0.298            3            78.         50.0
##  8 N                    0.356           10           115.         72.4
##  9 Y                    0.850            2           197.         70.0
## 10 Y                    0.648            8           125.         96.0
## # ... with 758 more rows, and 9 more variables: skinfold <dbl>,
## #   insulin <dbl>, pedigree <dbl>, age <int>, weight_class_normal <dbl>,
## #   weight_class_obese <dbl>, weight_class_overweight <dbl>,
## #   weight_class_other <dbl>, weight_class_hcai_missing <dbl>
…
