Using Variables with Many Categories • healthcareai
…
Introduction

library(healthcareai)
library(tidyverse)

For this vignette, we introduce a new data table, pima_meds, which contains information on what medications each patient in the pima_diabetes dataset has taken and for how long. This dataset is built into healthcareai as of version 2.1.1, which you can install before it is on CRAN with remotes::install_github("HealthCatalyst/healthcareai-r@v2.1.1"), or you can generate it yourself with the code in Appendix: Data Generation.

Some patients have no meds and so don’t appear in the table, some have one med, and most have more than one. Because of this, the medication information doesn’t fit neatly into the model table (pima_diabetes) without being pivoted. Under the hood, get_best_levels identifies which levels to use, and add_best_levels pivots them into new columns on the model table. Here are the first rows in the pima_meds table.

# > Warning: `cols` is now required when using unnest().
# > Please use `cols = c(drug_name)`

pima_meds
# > # A tibble: 1,534 x 3
# >   patient_id medication years_taken
# >        <int> <chr>            <dbl>
# > 1          1 metformin        0.856
# > 2          1 metoprolol       9.44 
# > 3          1 nexium           3.91 
# > 4          1 prednisone       2.69 
# > 5          2 tiotropium       3.53 
# > # … with 1,529 more rows
…
The fun argument is only relevant if there are multiple observations of the same level for the same ID; for example, if a patient could have the same drug listed twice for different periods they were on the drug, we could use fun = sum to get the total length of time they were on the drug.

Working with a single table

In the examples above, each observation (each row in d/pima_diabetes) could have zero, one, or many group memberships (rows in longsheet/pima_meds). There is a special case when each observation is in exactly one group. In this case you might have only one table because the groups fit tidily into a single column in d. However, there might still be so many groups that creating a column for each is infeasible for the reasons described in the Summary. There are other options available for this special case, e.g. impact coding as implemented by the vtreat package, but add_best_levels works well here too. In this case, simply provide the same data frame to d and longsheet and proceed as usual, but note that you will need to remove the original column at the end.

For example, suppose we have 100,000 patients’ zip codes and we want to predict their lengths of stay (LOS). In reality we’d want lots of other features, but we’ll keep things simple here. Creating a column for every zip code (we’ll use Intermountain West zip codes, which we’ll pretend are every integer from 80001 to 89999) would create a massive table – model training would be very slow, and including zip codes that aren’t associated with particularly long or short LOS would impair model performance. add_best_levels helps by identifying zip codes associated with especially long or short LOS, and creating dummy variables for those zip codes. Here is that simulated data.

n <- 1e5
zip_los <- tibble(
  id = seq_len(n),
  zip = sample(80001:89999, n, replace = TRUE),
  LOS = zip * 1e-4 + abs(rnorm(n, sd = .1)))
zip_los
# > # A tibble: 100,000 x 3
# >      id   zip   LOS
# >   <int> <int> <dbl>
# > 1     1 81774  8.26
# > 2     2 81839  8.33
# > 3     3 84249  8.48
# > 4     4 89807  9.06
# > 5     5 81683  8.20
# > # … with 99,995 more rows

Now we create we’ll create dummy variables for the ten zip codes likely to make the best predictors of LOS. Note that LOS was simulated as a linear function of the numeric value of the patient’s zip code (plus some random noise), so we should expect zip codes close to 80001 to be associated with especially short LOS and close to 89999 with especially long LOS. Therefore the columns added as best levels should be zip codes near the endpoints.

add_best_levels(
  d = zip_los,
  longsheet = zip_los,
  id = id,
  groups = zip,
  outcome = LOS,
  n_levels = 10,
  missing_fill = 0L
) %>%
  select(-zip)
# > # A tibble: 100,000 x 12
# >      id   LOS zip_80008 zip_80124 zip_80337 zip_81214 zip_82412 zip_88634
# >   <int> <dbl>     <int>     <int>     <int>     <int>     <int>     <int>
# > 1     1  8.26         0         0         0         0         0         0
# > 2     2  8.33         0         0         0         0         0         0
# > 3     3  8.48         0         0         0         0         0         0
# > 4     4  9.06         0         0         0         0         0         0
# > 5     5  8.20         0         0         0         0         0         0
# > # … with 99,995 more rows, and 4 more variables: zip_89136 <int>,
# > #   zip_89299 <int>, zip_89586 <int>, zip_89932 <int>
…
