Getting Started with healthcareai • healthcareai
…
Everything looks as expected, and the best model is is a random forest that achieves performance of AUROC = 0.84. Not bad for one line of code.

Now that we have our models, we can make predictions using the predict function. If you provide a new data frame to predict it will make predictions on the new data; otherwise, it will make predictions on the training data.

predictions <- predict(quick_models)
predictions
# > "predicted_diabetes" predicted by Random Forest last trained: 2018-06-11 10:20:03
# > Performance in training: AUROC = 0.84
# > # A tibble: 768 x 14
# >   diabetes predicted_diabetes pregnancies plasma_glucose diastolic_bp
# > * <fct>                 <dbl>       <int>          <dbl>        <dbl>
# > 1 Y                     0.247           6           148.          72.
# > 2 N                     0.938           1            85.          66.
# > 3 Y                     0.521           8           183.          64.
# > 4 N                     0.994           1            89.          66.
# > 5 Y                     0.347           0           137.          40.
# > # ... with 763 more rows, and 9 more variables: skinfold <dbl>,
# > #   insulin <dbl>, pedigree <dbl>, age <int>, weight_class_normal <dbl>,
# > #   weight_class_obese <dbl>, weight_class_overweight <dbl>,
# > #   weight_class_other <dbl>, weight_class_missing <dbl>
…
Prediction

predict will automatically use the best-performing model from training (evaluated out-of-fold in cross validation). If no new data is passed to predict it will return out-of-fold predictions from training. The predicted probabilities appear in the predicted_diabetes column.

predict(models)
# > "predicted_diabetes" predicted by Random Forest last trained: 2018-06-11 10:20:22
# > Performance in training: AUPR = 0.9
# > # A tibble: 692 x 15
# >   diabetes predicted_diabetes pregnancies plasma_glucose diastolic_bp
# > * <fct>                 <dbl>       <dbl>          <dbl>        <dbl>
# > 1 N                     0.897      -0.843         -1.19        -0.521
# > 2 Y                     0.482       1.22           2.01        -0.686
# > 3 N                     0.989      -0.843         -1.05        -0.521
# > 4 Y                     0.496      -1.14           0.509       -2.66 
# > 5 N                     0.689       0.338         -0.175        0.138
# > # ... with 687 more rows, and 10 more variables: skinfold <dbl>,
# > #   insulin <dbl>, pedigree <dbl>, age <dbl>, weight_class_normal <dbl>,
# > #   weight_class_obese <dbl>, weight_class_overweight <dbl>,
# > #   weight_class_underweight <dbl>, weight_class_missing <dbl>,
# > #   weight_class_other <dbl>
…
# > *** If there was PHI in training data, normal PHI protocols apply to the model object. ***
summary(regression_models)
# > Models trained: 2018-06-11 10:20:37
# > 
# > Models tuned via 5-fold cross validation over 10 combinations of hyperparameter values.
# > Best performance: RMSE = 9.2, MAE = 6.7, Rsquared = 0.4
# > By Random Forest with hyperparameters:
# >   mtry = 3
# >   splitrule = variance
# >   min.node.size = 2
# > 
# > Out-of-fold performance of all trained models:
# > 
# > $`Random Forest`
# > # A tibble: 10 x 9
# >    mtry splitrule  min.node.size  RMSE Rsquared   MAE RMSESD RsquaredSD
# > * <int> <chr>              <int> <dbl>    <dbl> <dbl>  <dbl>      <dbl>
# > 1     3 variance               2  9.19    0.396  6.66  0.650     0.0418
# > 2    10 extratrees            20  9.19    0.392  6.53  0.700     0.0413
# > 3     6 variance              20  9.23    0.386  6.59  0.613     0.0375
# > 4     7 variance              12  9.28    0.380  6.62  0.593     0.0396
# > 5    10 variance               8  9.39    0.368  6.69  0.595     0.0431
# > # ... with 5 more rows, and 1 more variable: MAESD <dbl>
# > 
# > $`k-Nearest Neighbors`
# > # A tibble: 10 x 9
# >    kmax distance kernel       RMSE Rsquared   MAE RMSESD RsquaredSD  MAESD
# > * <int>    <dbl> <chr>       <dbl>    <dbl> <dbl>  <dbl>      <dbl>  <dbl>
# > 1     9    1.76  gaussian     9.48    0.358  6.65  0.392     0.0436 0.118 
# > 2    10    0.581 rectangular  9.60    0.338  6.86  0.530     0.0244 0.324 
# > 3    10    1.97  optimal      9.75    0.327  6.77  0.366     0.0415 0.0971
# > 4     9    2.90  epanechnik…  9.82    0.318  6.87  0.334     0.0334 0.125 
# > 5    10    2.46  optimal      9.82    0.318  6.84  0.348     0.0385 0.104 
# > # ... with 5 more rows
# > 
# > $glmnet
# > # A tibble: 20 x 8
# >   alpha  lambda  RMSE Rsquared   MAE RMSESD RsquaredSD MAESD
# > * <dbl>   <dbl> <dbl>    <dbl> <dbl>  <dbl>      <dbl> <dbl>
# > 1    1. 0.0889   9.42    0.368  6.75  0.684     0.0593 0.176
# > 2    0. 0.00246  9.42    0.367  6.77  0.684     0.0602 0.184
# > 3    0. 0.0138   9.42    0.367  6.77  0.684     0.0602 0.184
# > 4    0. 0.0179   9.42    0.367  6.77  0.684     0.0602 0.184
# > 5    0. 0.0235   9.42    0.367  6.77  0.684     0.0602 0.184
# > # ... with 15 more rows
…
