Performance on Large Datasets • healthcareai
…
d <- nycflights13::flights
d
# > # A tibble: 336,776 x 19
# >    year month   day dep_time sched_dep_time dep_delay arr_time sched_arr_time
# >   <int> <int> <int>    <int>          <int>     <dbl>    <int>          <int>
# > 1  2013     1     1      517            515         2      830            819
# > 2  2013     1     1      533            529         4      850            830
# > 3  2013     1     1      542            540         2      923            850
# > 4  2013     1     1      544            545        -1     1004           1022
# > 5  2013     1     1      554            600        -6      812            837
# > # … with 336,771 more rows, and 11 more variables: arr_delay <dbl>,
# > #   carrier <chr>, flight <int>, tailnum <chr>, origin <chr>, dest <chr>,
# > #   air_time <dbl>, distance <dbl>, hour <dbl>, minute <dbl>, time_hour <dttm>
…
# >       role #variables
# >    outcome          1
# >  predictor         15
# > 
# > Training data contained 336776 data points and 9430 incomplete rows. 
# > 
# > Operations:
# > 
# > Sparse, unbalanced variable filter removed year [trained]
# > Date features from time_hour [trained]
# > Variables removed time_hour [trained]
# > Mean Imputation for month, day, sched_dep_time, ... [trained]
# > Filling NA with missing for carrier, origin, dest [trained]
# > Dummy variables from carrier, origin, and dest [trained]
# > # A tibble: 336,776 x 16
# >   carrier_X9E carrier_AA carrier_AS carrier_B6 carrier_DL carrier_EV carrier_F9
# >         <dbl>      <dbl>      <dbl>      <dbl>      <dbl>      <dbl>      <dbl>
# > 1           0          0          0          0          0          0          0
# > 2           0          0          0          0          0          0          0
# > 3           0          1          0          0          0          0          0
# > 4           0          0          0          1          0          0          0
# > 5           0          0          0          0          1          0          0
# > # … with 336,771 more rows, and 9 more variables: carrier_FL <dbl>,
# > #   carrier_HA <dbl>, carrier_MQ <dbl>, carrier_OO <dbl>, carrier_US <dbl>,
# > #   carrier_VX <dbl>, carrier_WN <dbl>, carrier_YV <dbl>, carrier_missing <dbl>
…
# > 
# > Training data contained 336776 data points and 9430 incomplete rows. 
# > 
# > Operations:
# > 
# > Sparse, unbalanced variable filter removed year [trained]
# > Date features from time_hour [trained]
# > Variables removed time_hour [trained]
# > Mean Imputation for month, day, sched_dep_time, ... [trained]
# > Filling NA with missing for carrier, origin, dest [trained]
# > Adding levels to: other, missing [trained]
# > Collapsing factor levels for carrier, origin, dest [trained]
# > Adding levels to: other, missing [trained]
# > Dummy variables from carrier, origin, and dest [trained]
# > # A tibble: 336,776 x 18
# >   dest_ATL dest_BOS dest_CLT dest_DCA dest_DEN dest_DFW dest_DTW dest_FLL
# >      <dbl>    <dbl>    <dbl>    <dbl>    <dbl>    <dbl>    <dbl>    <dbl>
# > 1        0        0        0        0        0        0        0        0
# > 2        0        0        0        0        0        0        0        0
# > 3        0        0        0        0        0        0        0        0
# > 4        0        0        0        0        0        0        0        0
# > 5        1        0        0        0        0        0        0        0
# > # … with 336,771 more rows, and 10 more variables: dest_IAH <dbl>,
# > #   dest_LAX <dbl>, dest_MCO <dbl>, dest_MIA <dbl>, dest_MSP <dbl>,
# > #   dest_ORD <dbl>, dest_RDU <dbl>, dest_SFO <dbl>, dest_TPA <dbl>,
# > #   dest_missing <dbl>
…
# > 
# > Training data contained 336776 data points and 9430 incomplete rows. 
# > 
# > Operations:
# > 
# > Sparse, unbalanced variable filter removed no terms [trained]
# > Date features from time_hour [trained]
# > Variables removed time_hour [trained]
# > Mean Imputation for sched_dep_time, sched_arr_time, ... [trained]
# > Filling NA with missing for carrier, origin, dest [trained]
# > Adding levels to: other, missing [trained]
# > Collapsing factor levels for carrier, origin, dest [trained]
# > Adding levels to: other, missing [trained]
# > Dummy variables from carrier, origin, and dest [trained]
# > # A tibble: 336,776 x 7
# >   time_hour_dow_s… time_hour_dow_c… time_hour_month… time_hour_month…
# >              <dbl>            <dbl>            <dbl>            <dbl>
# > 1            0.434           -0.901            0.500            0.866
# > 2            0.434           -0.901            0.500            0.866
# > 3            0.434           -0.901            0.500            0.866
# > 4            0.434           -0.901            0.500            0.866
# > 5            0.434           -0.901            0.500            0.866
# > # … with 336,771 more rows, and 3 more variables: time_hour_year <dbl>,
# > #   time_hour_hour_sin <dbl>, time_hour_hour_cos <dbl>
…
# > 
# > Training data contained 336776 data points and 9430 incomplete rows. 
# > 
# > Operations:
# > 
# > Sparse, unbalanced variable filter removed no terms [trained]
# > Date features from time_hour [trained]
# > Variables removed time_hour [trained]
# > Mean Imputation for sched_dep_time, sched_arr_time, ... [trained]
# > Filling NA with missing for carrier, origin, dest, ... [trained]
# > Adding levels to: other, missing [trained]
# > Collapsing factor levels for carrier, origin, dest, ... [trained]
# > Adding levels to: other, missing [trained]
# > Dummy variables from carrier, origin, dest, time_hour_dow, and time_hour_month [trained]
# > # A tibble: 336,776 x 23
# >   time_hour_year time_hour_hour time_hour_dow_S… time_hour_dow_T…
# >            <dbl>          <int>            <dbl>            <dbl>
# > 1           2013              5                0                1
# > 2           2013              5                0                1
# > 3           2013              5                0                1
# > 4           2013              5                0                1
# > 5           2013              6                0                1
# > # … with 336,771 more rows, and 19 more variables: time_hour_dow_Wed <dbl>,
# > #   time_hour_dow_Thu <dbl>, time_hour_dow_Fri <dbl>, time_hour_dow_Sat <dbl>,
# > #   time_hour_dow_other <dbl>, time_hour_dow_missing <dbl>,
# > #   time_hour_month_Jan <dbl>, time_hour_month_Feb <dbl>,
# > #   time_hour_month_Mar <dbl>, time_hour_month_Apr <dbl>,
# > #   time_hour_month_May <dbl>, time_hour_month_Jun <dbl>,
# > #   time_hour_month_Aug <dbl>, time_hour_month_Sep <dbl>,
# > #   time_hour_month_Oct <dbl>, time_hour_month_Nov <dbl>,
# > #   time_hour_month_Dec <dbl>, time_hour_month_other <dbl>,
…
data <- d %>% select(flight_id, arr_delay)
ls <- d %>% select(flight_id, tailnum, arr_delay)

d_best_levels <- data %>%
  add_best_levels(longsheet = ls,
                  id = flight_id,
                  groups = tailnum,
                  outcome = arr_delay,
                  n_levels = 20,
                  min_obs = 50,
                  missing_fill = 0)
# > No fill column was provided, so using "1" for present entities
d_best_levels
# > # A tibble: 336,776 x 22
# >   flight_id arr_delay tailnum_N13133 tailnum_N13970 tailnum_N14953
# >       <int> <chr>              <int>          <int>          <int>
# > 1         1 N                      0              0              0
# > 2         2 Y                      0              0              0
# > 3         3 Y                      0              0              0
# > 4         4 N                      0              0              0
# > 5         5 N                      0              0              0
# > # … with 336,771 more rows, and 17 more variables: tailnum_N15910 <int>,
# > #   tailnum_N17984 <int>, tailnum_N363NB <int>, tailnum_N36915 <int>,
# > #   tailnum_N3HKAA <int>, tailnum_N3HWAA <int>, tailnum_N3HYAA <int>,
# > #   tailnum_N4XDAA <int>, tailnum_N514UA <int>, tailnum_N669DN <int>,
# > #   tailnum_N688DL <int>, tailnum_N710UW <int>, tailnum_N822MQ <int>,
# > #   tailnum_N844VA <int>, tailnum_N8611A <int>, tailnum_N8869B <int>,
# > #   tailnum_N992DL <int>
…
