Transitioning from healthcareai v1 to v2 • healthcareai
…
predict(models, d$test)
# > Prepping data based on provided recipe
# > "predicted_ThirtyDayReadmitFLG" predicted by Random Forest last trained: 2020-08-05 09:20:40
# > Performance in training: AUROC = 0.87
# > # A tibble: 48 x 8
# >   ThirtyDayReadmi… predicted_Thirt… PatientEncounte… PatientID SystolicBPNBR
# > * <fct>                       <dbl>            <int>     <int>         <int>
# > 1 N                         0.103                 16     10004           117
# > 2 Y                         0.807                 19     10004           187
# > 3 N                         0.00580               29     10005           170
# > 4 N                         0.0516                46     10008           134
# > 5 Y                         0.254                 56     10009           191
# > # … with 43 more rows, and 3 more variables: LDLNBR <int>, A1CNBR <dbl>,
# > #   GenderFLG <chr>
…
