Explore a model's "reasoning" via counterfactual predictions — explore • healthcareai
…
# By default, the four most important features are varied, with numeric
# features taking their 5, 25, 50, 75, and 95 percentile values, and
# categoricals taking their five most common values. Others features are
# held at their median and modal values for numeric and categorical features,
# respectively. This can provide insight into how the model responds to
# different features
explore(m)
#> # A tibble: 625 x 9
#>    predicted_diabe… plasma_glucose pedigree   age diastolic_bp pregnancies
#>  *            <dbl>          <dbl>    <dbl> <dbl>        <dbl>       <dbl>
#>  1           0.0126             80    0.140    21           52           3
#>  2           0.0377             99    0.140    21           52           3
#>  3           0.114             117    0.140    21           52           3
#>  4           0.416             141    0.140    21           52           3
#>  5           0.765             181    0.140    21           52           3
#>  6           0.0122             80    0.244    21           52           3
#>  7           0.0295             99    0.244    21           52           3
#>  8           0.0954            117    0.244    21           52           3
#>  9           0.318             141    0.244    21           52           3
#> 10           0.690             181    0.244    21           52           3
#> # … with 615 more rows, and 3 more variables: skinfold <dbl>, insulin <dbl>,
#> #   weight_class <chr>
…
# You can specify which features vary and what values they take in a variety of
# ways. For example, you could vary only "weight_class" and "plasma_glucose"
explore(m, vary = c("weight_class", "plasma_glucose"))
#> # A tibble: 25 x 9
#>    predicted_diabe… weight_class plasma_glucose pregnancies diastolic_bp
#>  *            <dbl> <chr>                 <dbl>       <dbl>        <dbl>
#>  1          0.0213  obese                    80           3           72
#>  2          0.0344  overweight               80           3           72
#>  3          0.00774 normal                   80           3           72
#>  4          0.0503  morbidly ob…             80           3           72
#>  5          0.0213  NA                       80           3           72
#>  6          0.0667  obese                    99           3           72
#>  7          0.105   overweight               99           3           72
#>  8          0.0196  normal                   99           3           72
#>  9          0.148   morbidly ob…             99           3           72
#> 10          0.0667  NA                       99           3           72
#> # … with 15 more rows, and 4 more variables: skinfold <dbl>, insulin <dbl>,
#> #   pedigree <dbl>, age <dbl>

# You can also control what values non-varying features take.
# For example, if you want to simulate alternative scenarios for patient 321
patient321 <- dplyr::filter(pima_diabetes, patient_id == 321)
patient321
#> # A tibble: 1 x 10
#>   patient_id pregnancies plasma_glucose diastolic_bp skinfold insulin
#>        <int>       <int>          <int>        <int>    <int>   <int>
#> 1        321           4            129           60       12     231
#> # … with 4 more variables: weight_class <chr>, pedigree <dbl>, age <int>,
#> #   diabetes <chr>
explore(m, hold = patient321)
#> # A tibble: 625 x 9
#>    predicted_diabe… plasma_glucose pedigree   age diastolic_bp pregnancies
#>  *            <dbl>          <dbl>    <dbl> <dbl>        <dbl>       <int>
#>  1          0.00456             80    0.140    21           52           4
#>  2          0.0125              99    0.140    21           52           4
#>  3          0.0103             117    0.140    21           52           4
#>  4          0.0186             141    0.140    21           52           4
#>  5          0.228              181    0.140    21           52           4
#>  6          0.00752             80    0.244    21           52           4
#>  7          0.0165              99    0.244    21           52           4
#>  8          0.0188             117    0.244    21           52           4
#>  9          0.0240             141    0.244    21           52           4
#> 10          0.289              181    0.244    21           52           4
#> # … with 615 more rows, and 3 more variables: skinfold <int>, insulin <int>,
#> #   weight_class <chr>
…
