Impute data and return a reusable recipe — impute • healthcareai
…
# Apply to new data
impute(d = d_test, patient_id, diabetes, recipe = train_imputed)
#> Original missingness and methods used in imputation:
#> 
#> # A tibble: 4 x 3
#>   variable     percent_missing imputation_method_used
#>   <chr>                  <dbl> <chr>                 
#> 1 weight_class            1.47 new_category          
#> 2 diastolic_bp            2.94 mean                  
#> 3 skinfold               26.5  mean                  
#> 4 insulin                52.9  mean                  
#> 
#> Current data:
#> 
#> # A tibble: 68 x 10
#>    patient_id pregnancies plasma_glucose diastolic_bp skinfold insulin
#>         <int>       <int>          <int>        <int>    <int>   <int>
#>  1        701           2            122           76       27     200
#>  2        702           6            125           78       31     154
#>  3        703           1            168           88       29     154
#>  4        704           2            129           72       29     154
#>  5        705           4            110           76       20     100
#>  6        706           6             80           80       36     154
#>  7        707          10            115           72       29     154
#>  8        708           2            127           46       21     335
#>  9        709           9            164           78       29     154
#> 10        710           2             93           64       32     160
#> # … with 58 more rows, and 4 more variables: weight_class <fct>,
#> #   pedigree <dbl>, age <int>, diabetes <chr>
…
nominal_method = "new_category")
#> Original missingness and methods used in imputation:
#> 
#> # A tibble: 5 x 3
#>   variable       percent_missing imputation_method_used
#>   <chr>                    <dbl> <chr>                 
#> 1 plasma_glucose           0.714 bagimpute             
#> 2 weight_class             1.43  new_category          
#> 3 diastolic_bp             4.71  bagimpute             
#> 4 skinfold                29.9   bagimpute             
#> 5 insulin                 48.3   bagimpute             
#> 
#> Current data:
#> 
#> # A tibble: 700 x 10
#>    patient_id pregnancies plasma_glucose diastolic_bp skinfold insulin
#>         <int>       <int>          <int>        <int>    <int>   <int>
#>  1          1           6            148           72       35     213
#>  2          2           1             85           66       29      70
#>  3          3           8            183           64       22     203
#>  4          4           1             89           66       23      94
#>  5          5           0            137           40       35     168
#>  6          6           5            116           74       24     131
#>  7          7           3             78           50       32      88
#>  8          8          10            115           71       33     136
#>  9          9           2            197           70       45     543
#> 10         10           8            125           96       32     251
#> # … with 690 more rows, and 4 more variables: weight_class <fct>,
#> #   pedigree <dbl>, age <int>, diabetes <chr>
…
#> `knnimpute` depends on another library that does not support character columns yet. If `knnimpute` fails please convert all character columns to factors for knn imputation.
#> Original missingness and methods used in imputation:
#> 
#> # A tibble: 5 x 3
#>   variable       percent_missing imputation_method_used
#>   <chr>                    <dbl> <chr>                 
#> 1 plasma_glucose           0.714 mean                  
#> 2 weight_class             1.43  knnimpute             
#> 3 diastolic_bp             4.71  mean                  
#> 4 skinfold                29.9   mean                  
#> 5 insulin                 48.3   mean                  
#> 
#> Current data:
#> 
#> # A tibble: 700 x 10
#>    patient_id pregnancies plasma_glucose diastolic_bp skinfold insulin
#>         <int>       <int>          <int>        <int>    <int>   <int>
#>  1          1           6            148           72       35     154
#>  2          2           1             85           66       29     154
#>  3          3           8            183           64       29     154
#>  4          4           1             89           66       23      94
#>  5          5           0            137           40       35     168
#>  6          6           5            116           74       29     154
#>  7          7           3             78           50       32      88
#>  8          8          10            115           72       29     154
#>  9          9           2            197           70       45     543
#> 10         10           8            125           96       29     154
#> # … with 690 more rows, and 4 more variables: weight_class <fct>,
#> #   pedigree <dbl>, age <int>, diabetes <chr>
…
