Machine Learn — machine_learn • healthcareai
…
### Regression ###

# Predict numeric outcomes simply by specifying the name of the outcome variable
age_model <- machine_learn(training_data, outcome = age)
#> Training new data prep recipe
#> age looks numeric, so training regression algorithms.
#> Running cross validation for Random Forest
#> Running cross validation for k-Nearest Neighbors

# If new data isn't specifed, get predictions on training data
predict(age_model)
#> healthcareai-predicted data. Column "predicted_age" predicted by Random Forest tuned on RMSE. Performance in training: RMSE = 8.82.
#> # A tibble: 90 x 17
#>      age predicted_age patient_id pregnancies plasma_glucose diastolic_bp
#>  * <int>         <dbl>      <int>       <int>          <dbl>        <dbl>
#>  1    30          35.2         11           4            110         92.0
#>  2    34          40.1         12          10            168         74.0
#>  3    57          49.6         13          10            139         80.0
#>  4    59          47.0         14           1            189         60.0
#>  5    51          47.5         15           5            166         72.0
#>  6    32          35.2         16           7            100         73.0
#>  7    31          32.3         17           0            118         84.0
#>  8    31          34.1         18           7            107         74.0
#>  9    33          29.6         19           1            103         30.0
#> 10    32          31.0         20           1            115         70.0
#> # ... with 80 more rows, and 11 more variables: skinfold <dbl>, insulin <dbl>,
#> #   pedigree <dbl>, weight_class_normal <dbl>, weight_class_obese <dbl>,
#> #   weight_class_overweight <dbl>, weight_class_hcai_missing <dbl>,
#> #   weight_class_other <dbl>, diabetes_Y <dbl>, diabetes_other <dbl>,
#> #   diabetes_hcai_missing <dbl>
…
