Get predictions — predict.model_list • healthcareai
…
### Making predictions ###
##########################

# Make prediction on test data using the model that performed best in
# cross validation during model training. Before predictions are made, the test
# data is automatically prepared the same way the training data was.
predictions <- predict(models, newdata = d$test)
#> Prepping data based on provided recipe
predictions
#> "predicted_diabetes" predicted by glmnet last trained: 2020-08-05 09:08:42
#> Performance in training: AUROC = 0.84
#> # A tibble: 49 x 11
#>    diabetes predicted_diabe… patient_id pregnancies plasma_glucose diastolic_bp
#>  * <fct>               <dbl>      <int>       <int>          <int>        <int>
#>  1 N                  0.340          11           4            110           92
#>  2 Y                  0.946          23           7            196           90
#>  3 Y                  0.752          25          11            143           94
#>  4 N                  0.0587         28           1             97           66
#>  5 Y                  0.559          40           4            111           72
#>  6 N                  0.853          41           3            180           64
#>  7 N                  0.675          42           7            133           84
#>  8 Y                  0.941          46           0            180           66
#>  9 N                  0.0660         52           1            101           50
#> 10 N                  0.815          59           0            146           82
#> # … with 39 more rows, and 5 more variables: skinfold <int>, insulin <int>,
#> #   weight_class <chr>, pedigree <dbl>, age <int>
…
# arrange the predictions data frame in descending order of risk, and then use the
# row numbers to stratify patients
library(dplyr)
predict(models, d$test) %>%
  arrange(desc(predicted_diabetes)) %>%
  mutate(action = case_when(
    row_number() <= 3 ~ "admit",
    row_number() <= 8 ~ "treat",
    TRUE ~ "discharge"
  )) %>%
  select(predicted_diabetes, action, everything())
#> Prepping data based on provided recipe
#> "predicted_diabetes" predicted by glmnet last trained: 2020-08-05 09:08:42
#> Performance in training: AUROC = 0.84
#> # A tibble: 49 x 12
#>    predicted_diabe… action diabetes patient_id pregnancies plasma_glucose
#>  *            <dbl> <chr>  <fct>         <int>       <int>          <int>
#>  1            0.946 admit  Y                23           7            196
#>  2            0.941 admit  Y                46           0            180
#>  3            0.920 admit  Y               187           8            181
#>  4            0.853 treat  N                41           3            180
#>  5            0.815 treat  N                59           0            146
#>  6            0.801 treat  Y               121           0            162
#>  7            0.800 treat  Y               112           8            155
#>  8            0.788 treat  Y               196           5            158
#>  9            0.752 disch… Y                25          11            143
#> 10            0.711 disch… Y               116           4            146
#> # … with 39 more rows, and 6 more variables: diastolic_bp <int>,
#> #   skinfold <int>, insulin <int>, weight_class <chr>, pedigree <dbl>,
#> #   age <int>
…
