Prepare data for machine learning — prep_data • healthcareai
…
#>  predictor          8
#> 
#> Training data contained 700 data points and 340 incomplete rows. 
#> 
#> Operations:
#> 
#> Sparse, unbalanced variable filter removed no terms [trained]
#> Mean Imputation for pregnancies, plasma_glucose, ... [trained]
#> Filling NA with missing for weight_class [trained]
#> Adding levels to: other, missing [trained]
#> Collapsing factor levels for weight_class [trained]
#> Adding levels to: other, missing [trained]
#> Dummy variables from weight_class [trained]
#> Current data:
#> # A tibble: 68 x 13
#>    pregnancies plasma_glucose diastolic_bp skinfold insulin pedigree   age
#>          <int>          <int>        <dbl>    <dbl>   <dbl>    <dbl> <int>
#>  1           2            122         76       27      200     0.483    26
#>  2           6            125         78       31      154.    0.565    49
#>  3           1            168         88       29      154.    0.905    52
#>  4           2            129         72.3     29.1    154.    0.304    41
#>  5           4            110         76       20      100     0.118    27
#>  6           6             80         80       36      154.    0.177    28
#>  7          10            115         72.3     29.1    154.    0.261    30
#>  8           2            127         46       21      335     0.176    22
#>  9           9            164         78       29.1    154.    0.148    45
#> 10           2             93         64       32      160     0.674    23
#> # ... with 58 more rows, and 6 more variables: diabetes <fct>,
#> #   weight_class_normal <dbl>, weight_class_obese <dbl>,
#> #   weight_class_overweight <dbl>, weight_class_other <dbl>,
#> #   weight_class_missing <dbl>
…
#>  predictor          8
#> 
#> Training data contained 700 data points and 340 incomplete rows. 
#> 
#> Operations:
#> 
#> Sparse, unbalanced variable filter removed no terms [trained]
#> Bagged tree imputation for pregnancies, plasma_glucose, ... [trained]
#> Bagged tree imputation for weight_class [trained]
#> Centering for pregnancies, plasma_glucose, ... [trained]
#> Scaling for pregnancies, plasma_glucose, ... [trained]
#> Adding levels to: other, missing [trained]
#> Adding levels to: other, missing [trained]
#> Current data:
#> # A tibble: 700 x 10
#>    patient_id pregnancies plasma_glucose diastolic_bp skinfold insulin
#>         <int>       <dbl>          <dbl>        <dbl>    <dbl>   <dbl>
#>  1          1       0.646          0.872      -0.0205  0.631     0.434
#>  2          2      -0.840         -1.19       -0.513   0.00950  -0.849
#>  3          3       1.24           2.02       -0.678  -0.765     0.605
#>  4          4      -0.840         -1.06       -0.513  -0.612    -0.603
#>  5          5      -1.14           0.512      -2.65    0.631     0.135
#>  6          6       0.349         -0.175       0.144  -0.454    -0.273
#>  7          7      -0.246         -1.42       -1.83    0.320    -0.663
#>  8          8       1.83          -0.208      -0.0477  0.408    -0.223
#>  9          9      -0.543          2.47       -0.185   1.67      3.88 
#> 10         10       1.24           0.119       1.95    0.333     0.984
#> # ... with 690 more rows, and 4 more variables: weight_class <fct>,
#> #   pedigree <dbl>, age <dbl>, diabetes <fct>
…
