Last Observation Carried Forward Imputation — step_locfimpute • healthcareai
…
    Examples

library(recipes)

prepped <-
  recipe(formula = "~.", pima_diabetes) %>%
  step_locfimpute(weight_class, insulin, skinfold, diastolic_bp) %>%
  prep()

bake(prepped, new_data = pima_diabetes)
#> # A tibble: 768 x 10
#>    patient_id pregnancies plasma_glucose diastolic_bp skinfold insulin
#>         <int>       <int>          <int>        <int>    <int>   <int>
#>  1          1           6            148           72       35      94
#>  2          2           1             85           66       29      94
#>  3          3           8            183           64       29      94
#>  4          4           1             89           66       23      94
#>  5          5           0            137           40       35     168
#>  6          6           5            116           74       35     168
#>  7          7           3             78           50       32      88
#>  8          8          10            115           50       32      88
#>  9          9           2            197           70       45     543
#> 10         10           8            125           96       45     543
#> # … with 758 more rows, and 4 more variables: weight_class <fct>,
#> #   pedigree <dbl>, age <int>, diabetes <fct>
…
