Machine Learn — machine_learn • healthcareai
…
### Regression ###

# Predict numeric outcomes simply by specifying the name of the outcome variable
age_model <- machine_learn(training_data, outcome = age)
#> Training new data prep recipe
#> age looks numeric, so training regression algorithms.
#> Running cross validation for Random Forest
#> Running cross validation for k-Nearest Neighbors

# If new data isn't specifed, get predictions on training data. Plot predictions
predict(age_model)
#> "predicted_age" predicted by Random Forest last trained: 2018-03-30 16:22:10
#> Performance in training: RMSE = 9.88
#> # A tibble: 50 x 17
#>      age predicted_age patient_id pregnancies plasma_glucose diastolic_bp
#>  * <int>         <dbl>      <int>       <int>          <int>        <dbl>
#>  1    50          44.1          1           6            148         72.0
#>  2    31          29.0          2           1             85         66.0
#>  3    32          36.4          3           8            183         64.0
#>  4    21          25.1          4           1             89         66.0
#>  5    33          33.3          5           0            137         40.0
#>  6    30          32.5          6           5            116         74.0
#>  7    26          27.8          7           3             78         50.0
#>  8    29          33.6          8          10            115         73.6
#>  9    53          47.8          9           2            197         70.0
#> 10    54          46.9         10           8            125         96.0
#> # ... with 40 more rows, and 11 more variables: skinfold <dbl>, insulin <dbl>,
#> #   pedigree <dbl>, weight_class_normal <dbl>, weight_class_obese <dbl>,
#> #   weight_class_overweight <dbl>, weight_class_hcai_missing <dbl>,
#> #   weight_class_other <dbl>, diabetes_Y <dbl>, diabetes_other <dbl>,
#> #   diabetes_hcai_missing <dbl>
…
